{
  "project_info": {
    "project_number": "205275436165",
    "firebase_url": "https://asos-714ed.firebaseio.com",
    "project_id": "asos-714ed",
    "storage_bucket": "asos-714ed.appspot.com"
  },
  "client": [
    {
      "client_info": {
        "mobilesdk_app_id": "1:205275436165:android:7a42859436785f10",
        "android_client_info": {
          "package_name": "com.example.searchus.asos"
        }
      },
      "oauth_client": [
        {
          "client_id": "205275436165-0uhk3tm8uj58n08q24436suqvtjb96mu.apps.googleusercontent.com",
          "client_type": 1,
          "android_info": {
            "package_name": "com.example.searchus.asos",
            "certificate_hash": "59eb3c36d1e1299418663a22e804d7410e4dc188"
          }
        },
        {
          "client_id": "205275436165-ci7tnnd037jdh3iime2l0g7tovgm3bfd.apps.googleusercontent.com",
          "client_type": 3
        }
      ],
      "api_key": [
        {
          "current_key": "AIzaSyAghhhv7V_4k3DkcFxL4J0QwvKo1cLFnTg"
        },
        {
          "current_key": "AIzaSyAghhhv7V_4k3DkcFxL4J0QwvKo1cLFnTg"
        }
      ],
      "services": {
        "analytics_service": {
          "status": 1
        },
        "appinvite_service": {
          "status": 2,
          "other_platform_oauth_client": [
            {
              "client_id": "205275436165-ci7tnnd037jdh3iime2l0g7tovgm3bfd.apps.googleusercontent.com",
              "client_type": 3
            }
          ]
        },
        "ads_service": {
          "status": 2
        }
      }
    }
  ],
  "configuration_version": "1"
}